Kinyubi,Bangou,Kigo,Shogo,Jugyoin,Image,Image_two,Hipr,Kana,Tags,Tags_HTML,Tori_HTML
2015/6/11,3009,清水,（株）清水商店,9,,8,,,居酒屋さん向けの酒のおつまみを豊富にそろえています。これだけそろっている店はないはず。店作りには情熱をかけてこだわってたのですが、事情があり、残念ですが２０１５年６月いっぱいで店を閉めることになりました。長年にわたるご愛顧に心から感謝申し上げます。, c9,しみず
2015/6/19,7025,海清,（有）海清,7,,3,,,冷凍物は大体あつかっています。, c7,かいせい
2015/7/15,"7041,7042",丸宮,丸宮商店,"2,3",,6,,,多様化する魚の中にあって、お客様のニーズに応えながら本来の魚の美味しさ、季節感にあった鮮魚でお客様各位に納得していただける品物を扱っていきたいと思っております。, c2 c3,まるみや
2015/7/10,7047,洸峰,（株）洸峰,1,,6,,,最上級のカジキマグロ専門店です。, c1,こうほう
2015/7/15,"3127,7049,7050",ナンバ,（有）ナンバ水産,3,,6,,,天ぷら種を中心に取り扱っております。, c3,なんば
2015/7/10,"7051,7052",清水友,（株）清水友,3,,7,,,活魚、貝類、ふぐ他、良品を販売しています。５０年を越えた店です。, c3,しみずとも
2015/7/15,8041,大豊,（株）築地大豊,3,,9,,,一般的なすしネタを取り扱っています。, c3,だいとよ
2015/7/31,8073,伊勢豊,伊勢豊,1,,3,,,お客様のご要望に応えるよう、日々がんばっています。, c1,いせとよ
2015/6/19,7026～7028,やま吉,（有）やま吉,1,,20,,,明るい雰囲気で営業しています。若手従業員も多く、仕事熱心です。, c1,やまきち
2015/9/3,"3101,3102",堺末,（有）堺末,1,,4,,,少量からお客様のニーズに合わせたきめ細やかなサービスを心がけています。, c1,さかすえ
2015/9/4,3103,小栗,（株）小栗水産,"2,3",,3,,,こだわりのある社長が変わった物を扱っています。例：活シャコ、海でとれた天然鰻、活手長タコ、活ナマコなど。, c2 c3,おぐり
2015/9/3,3104,宮一,（有）宮一,1,,3,,,天然生本マグロ、天然冷本マグロ、天然冷南マグロ（インド）、生バチ、冷バチを扱っています。日本橋時代からで９５年ほどで、お客様のニーズに合わせております。, c1,みやいち
2015/9/3,3107～3112,小善,（株）小善,3,,12,,,豊洲でも皆様にご納得いただける質と価格とサービスを提供してまいります。ご用命をお待ちしております！, c3,こぜん
2015/9/24,1121,<img src='http://www.asahi.com/special/tsukiji/map-nakaoroshi/images/moji/1018-1.gif' alt='のじきよ'>,（株）ノジ喜代,"2,3",,15,,,元気があって、盛り上がってます！！, c2 c3,のじきよ
2015/9/24,"2125～2127,1129,1130",大宗,（株）大宗,"1,2,3,4,5,6,7,8,9,10,12",野菜,20,,,仕入れは荷受だけでなく、産地直送、直荷も行っている。営業を主軸においている仲卸です。, c1 c2 c3 c4 c5 c6 c7 c8 c9 c10 c12,だいそう
2015/6/25,8017～8020,美濃桂,（有）美濃桂商店,3,,18,,,高級料亭や寿司屋におさめる上物を、活け魚も含めて豊富にそろえています。, c3,みのけい
2015/9/24,3122,なり市堺浜,（株）なり市堺浜,7,,3,,,冷凍海老・魚を取り扱っています。, c7,なりいちさかいはま
2015/9/18,"3123,3124",三ツ輪,（有）島正商店,"8,9,10",,3,,,, c8 c9 c10,みつわ
2015/9/25,"3125,3126",泉寅,（有）泉寅,1,,2,,,国産マグロを中心とした商品構成です。冷凍物はメバチから本マグロまで幅広く扱っております。特に生のメバチと冷本マグロは当社の売りになっております。, c1,いずとら
2015/9/25,4126～4128,西山水産,西山水産（株）,"4,7,9",,11,,,社員一同、誠心誠意対応いたします。, c4 c7 c9,にしやますいさん
2015/9/25,3128,住定,住定,2,,2,,,, c2,すみさだ
2015/9/24,4125,ノジ喜代支店,ノジ喜代支店,10,,5,,,, c10,のじきよしてん
2015/10/1,"5121,5122",<img src='http://www.asahi.com/special/tsukiji/map-nakaoroshi/images/moji/1032-1.gif' alt='やまいち'>村田,（有）村田物産,9,,3,,,塩干魚専門に約８０年です。, c9,やまいちむらた
2015/10/1,"5123,5124",矢島,（株）矢島,1,,6,,,まごころの店。マグロと愛をお届けします。, c1,やじま
2015/9/25,"5125,5126",大元,大元商店,1,,6,,,味のあるマグロが得意です。, c1,だいもと
2015/10/2,5128,<img src='http://www.asahi.com/special/tsukiji/map-nakaoroshi/images/moji/1036-1.gif' alt='まるふく'>商店,（有）丸福商店,1,,3,,,信頼, c1,まるふくしょうてん
2015/10/1,"6121,6122",高梨水産,（有）高梨水産,12,エビ,4,,,, c12,たかなしすいさん
2015/10/1,6123,米恭,米恭,1,,3,,,生マグロ専門店ですので、特に鮮度を重視し、良い物をリーズナブルな価格で提供しております。, c1,こめきょう
2015/6/25,8023,小黒,小黒食品株式会社,1,,4,,,細かい注文に対応しています。安さが自慢です。, c1,おぐろ
2015/10/2,"2890,2891,6125,6126",孝之,（有）孝之,1,,3,,,良いマグロをお客様に安く売り渡せるように努力研究を重ねます。, c1,たかゆき
2015/10/1,6127,石橋水産,石橋水産,"3,5,7,12",特大タラバガニ,4,,,毎年恒例、年末の日本一安い「カニカニカーニバル」は場内の名物として定着しております！, c3 c5 c7 c12,いしばし
2015/10/1,6128,西保,（有）西保,3,,2,,,良品を薄利多売のお店です, c3,にしやす
2015/9/17,7121,伏万支店,伏万支店,"2,3",,2,,,コハダ、常時あります。, c2 c3,ふしまんしてん
2015/9/16,7122,山金,（有）山金商店,1,,2,,,よい商品をより安く都民の皆様に提供します。, c1,やまきん
2015/9/17,7123～7124,古川水産,古川水産,1,,6,,,, c1,ふるかわすいさん
2015/6/25,8025,堺七,堺七,"1,2,7,8",,2,,,何でもそろえます。自社便で配達もしています。, c1 c2 c7 c8,さかしち
2015/6/25,"8027,8028",サンキョウ,（有）三京,1,,5,,,, c1,さんきょう
2015/6/18,イ－11～14,中松,中松物産株式会社,"2,4,7",,13,,,商品も幅広く扱い、様々なお客さんに来ていただいています。, c2 c4 c7,なかまつ
2015/6/18,イ－15,富久,（有）富久,1,,1,,,冷凍マグロの店です。すし店専門で、上物を扱っています。, c1,とみきゅう
2015/6/11,"3011,3012",小峰屋,（有）小峰屋,1,,5,,,目利きには自信があります。いいものしか置いていません。少量売りも対応しています。, c1,こみねや
2015/6/19,イ－16～18,大菱,大菱水産株式会社,1,,8,,,お客さまによい品を適正な価格で販売しています。, c1,だいびし
2015/6/18,ロ－11,中彦,（株）中彦,"3,4,5,7,8,9,10,11",,14,,,冷凍品の商材を広く扱っています。, c3 c4 c5 c7 c8 c9 c10 c11,なかひこ
2015/6/18,ロ－15,堺林,堺林,"2,8",,3,,,多種の魚を扱っています。少量からも対応しますが、飲食店のお客が多いです。, c2 c8,さかりん
2015/6/18,ロ－16～18,町幸,（有）町幸,3,,8,,,貝類の専門店です。スーパーや飲食店の客が多いです。, c3,まちこう
2015/6/18,ハ－11～14,鈴富,（株）鈴富,"1,2",,10,,,生と冷凍のマグロを中心に鮮魚もそろえています。, c1 c2,すずとみ
2015/6/18,ハ－15,佐駒,佐駒商店,1,,1,,,冷凍メバチマグロの専門店です。街の魚屋さんやすし屋さんといったお客が多いです。, c1,さこま
2015/6/19,ハ－16,山岸,（有）築地山岸,2,,3,,,おいしくて鮮度のよい季節の魚を少量から売ります。, c2,やまぎし
2015/6/11,3013,北田本店,北田水産,"4,5,7,9",,50,,,場内に加工場を持っていて、漬け魚・煮魚を製造しています。ギフト販売も手がけており、他にはないサービスです。, c4 c5 c7 c9,きただほんてん
2015/6/18,ニ－13,武分,武分,"2,4",,2,,,冬場は、活け締めにしたタラを丸ごと買ってきて、腹出しした白子が人気です。小売りにも対応しています。, c2 c4,たけぶん
2015/6/18,ニ－14,伊藤支店,伊藤支店,"4,12",魚卵,2,,,イクラ、カズノコ、タラコや明太子、子持ち昆布など、魚卵や珍味を豊富にとりそろえています。小売りにも対応しています。, c4 c12,いとうしてん
2015/6/18,ニ－15～18,佃林,（株）佃林,"5,7",,10,,,１９０２（明治３５）年創業です。エビは、桜エビ・芝エビ・車エビなど、季節ごとに小さなものから数多くの種類を、生でも冷凍でも豊富にそろえています。寿司や天ぷらに使うイカやホタテも定番モノとして扱っています。若い従業員も増えているので、様々な飲食店の方に声をかけていただければと思っています。, c5 c7,つくりん
2015/7/9,1030,大力,（株）大力商店,"2,3",,16,,,創業１８８２（明治１５）年。１３０年以上、市場に店舗を構えている超高級鮮魚店です。, c2 c3,だいりき
2015/7/1,1031,コメケン,（有）コメケン,1,,2,,,天然マグロ専門店です。, c1,こめけん
2015/7/3,2030,芝専,（有）芝専,"2,3,6",,10,,,社長の弟・芝山孝さんが、築地回顧録「ありがとよ築地　魚河岸と生きた四十年」を出版しました。, c2 c3 c6,しばせん
2015/7/1,"2032～2036,1040",山和,（株）山和,1,,8,,,お客さんにとって便利なお店です。「作業」ではなく、「仕事」をするように意識しています。, c1,やまわ
2015/7/1,2037,吉野,（有）吉野,1,,4,,,, c1,よしの
2015/7/9,2039,星庄,（株）星庄,1,,4,,,, c1,ほししょう
2015/7/1,3031,山二,（株）山二,1,,8,,,生マグロ専門の仲卸です。そのほか鮮魚なども・・・, c1,やまに
2015/7/1,3033,中茂,（有）中茂,1,,2,,,冷凍インドマグロ、本マグロ専門店です。, c1,なかも
2015/7/1,3034,高須,高須商店,9,,4,,,お酒のおつまみはGoodです！, c9,たかす
2015/7/9,"3035,3036",富美,（有）富美商店,10,,5,,,元気、明るいお店です。, c10,ふみ
2015/7/1,"3037,3038",矢崎,（有）英水産,"2,4,5,7,8,9,10",,4,,,三代続けて営業しています。よい品をていねいにお客様に提供できるように心がけております。, c2 c4 c5 c7 c8 c9 c10,やざき
2015/7/1,3039,<img src='http://www.asahi.com/special/tsukiji/map-nakaoroshi/images/moji/139-1.gif' alt='ア'>有賀,（株）有賀,9,,3,,,珍味屋です。, c9,あるが
2015/7/1,3040,和泉勝,（有）和泉勝,9,,4,,,４代続いています。, c9,いずかつ
2015/7/9,4035～4040,村清,（株）ヤマセ村清,"4,7,8,9",,17,,,創業明治５年。しらす干しやいくら、干物等を扱う塩干仲卸です。<a href='http://murasei.com/' target='_blank'>murasei.com</a>, c4 c7 c8 c9,むらせい
2015/7/1,"5039,5040",日進,有限会社日進,"4,5,6,7,8,9",,16,,,従業員に北海道の出身者が多く、北海道の魚を多く扱っています。, c4 c5 c6 c7 c8 c9,にっしん
2015/7/1,"5031,5032",高福,高福,1,,4,,,若い従業員が多く、活気があるお店です。, c1,たかふく
2015/6/26,5033～5035,カネ<img src='http://www.asahi.com/special/tsukiji/map-nakaoroshi/images/moji/145-3.gif' alt='重'>,カネ重,"2,3,6",,8,,,活魚とウニをメーンで扱っております。一般のお客様も歓迎です。, c2 c3 c6,かねじゅう
2015/7/2,"5037,5038",尾鶴・喜鶴,尾鶴・喜鶴,1,,5,,,創業１１５年の老舗です。, c1,おつる・きかく
2015/6/11,"4011,4012",恵山,（有）恵山,1,,4,,,少量から対応しています。, c1,えやま
2015/7/1,"6031,6032,7031",入元仲田,（株）入元仲田,1,,6,,,生も冷凍もオールマイティに扱っています。安くて良い品物を提供するように心がけています。, c1,いりげんなかだ
2015/7/1,"6033,6034",江田水産,江田水産,1,,2,,,マグロの専門店です。, c1,えだすいさん
2015/7/1,6035.6036,山卯,（有）山卯商店,"1,7",,2,,,, c1 c7,やまう
2015/7/24,6037,マルセ山仁２号,（株）Ｍインターナショナル,"2,4,7,11",,8,,,扱っている魚種の豊富さが自慢です。, c2 c4 c7 c11,まるせやまじんにごう
2015/7/2,"6039,6040",日栄水産,（株）日栄水産,"4,5,7,8,10",,10,,,店員みんな、誠実・まじめに接客しています。, c4 c5 c7 c8 c10,にちえいすいさん
2015/6/25,"7029,7030",虎勇,（株）虎勇,"2,3",,3,,,カツオをメーンに扱っています。, c2 c3,とらゆう
2015/6/11,"4013,4014",原秀鯉広,（株）原秀,"2,3",,2,,,元気な帳場、気さくな配達人。父親と叔父の店を引き継いでやっています。, c2 c3,はらひでこいひろ
2015/6/25,"7032,7033",吉富,（株）まぐろの吉富,1,,4,,,生のマグロをさく売りしています。, c1,よしとみ
2015/7/2,"7035,7036",津川,（株）津川商店,"1,12",,5,,,お客のニーズに応え、１キロ単位からサク取りします。品質管理を重視し、お客さんに喜ばれています。, c1 c12,つがわ
2015/6/25,7037～7040,三恵,浦安三恵,"1,2,3",,8,,,みんなで仲良くやっている会社です。, c1 c2 c3,さんけい
2015/6/25,8030,白井水産,（株）白井水産,"2,3,5",,5,,,兄弟２人でがんばっています。, c2 c3 c5,しらいすいさん
2015/6/25,8033～8040,丸時,株式会社丸時,"8,9,12",加工品など,17,,,, c8 c9 c12,まるとき
2015/7/1,"イ－21,22",滝松,（有）滝松商店,1,,5,,,大小様々な大きさのマグロをサクの状態で販売しています。少量売りも対応しています。, c1,たきまつ
2015/6/11,4015,米岩,（有）米岩商店,1,,3,,,小さな個人店にも対応しています。, c1,こめいわ
2015/7/1,"イ－23,24",堺峰,（株）堺峰水産,1,,2,,,安い価格、親切丁寧な仕事を心がけています。, c1,さかみね
2015/7/1,ロ－19,村和,（株）村和,8,,12,,,全国の干物・乾物・珍味を取り扱っています。プロから素人のお客さん、どなたでも親切に対応します。よろしくお願いします。, c8,むらわ
2015/7/1,ロ－21,青梅水産,（有）青梅水産,"2,3",,5,,,すしだね全般を、冷凍ものから幅広く品揃（ぞろ）えしています。, c2 c3,おうみすいさん
2015/7/2,"ロ－23～26,イ－25,26",高邦,高邦水産株式会社,"2,3",,40,,,お客専属の弊社バイヤーをお付けし、鋭い目利きによって選ばれた築地の鮮魚を、ＦＡＸひとつでお届けいたします。, c2 c3,たかくに
2015/6/25,ハ－18～20,平高,（有）平高商店,"2,4,7",,4,,,配送サービスもやっています。小売りも対応。従業員は明るくて話しかけやすい雰囲気です。, c2 c4 c7,ひらたか
2015/7/1,"ハ－23,24",<img src='http://www.asahi.com/special/tsukiji/map-nakaoroshi/images/moji/178-1.gif' alt='かねき'>,（有）カネキ,"3,11",,5,,,ウナギ・カキ専門店として営業しています。, c3 c11,かねき
2015/7/9,"ハ－21,22,25,26",高洋,高洋有限会社,1,,8,,,最高品質のマグロをとりそろえております。, c1,こうよう
2015/6/26,"イ－19,20",飯田水産,飯田水産,"3,4,5,6",,7,,,少量売りにも対応しています。特種もの、コハダ、スミイカ、アジなどに力を入れています。, c3 c4 c5 c6,いいだすいさん
2015/6/26,ニ－21～24,浦安田代,（株）浦安田代水産,"2,3,4,5,6,11",,15,,,お客様に喜ばれる商品を、自信をもって安く提供できるよう社員一同がんばっています。, c2 c3 c4 c5 c6 c11,うらやすたしろ
2015/6/25,"ニ－25,26",大滉,（有）大滉,"1,9",,5,,,「価値ある商品を、真心を込めてお客様にお届けする」　一人一人がハートを大切にするお店です。, c1 c9,だいこう
2015/7/9,1041,佃伊之,（株）佃伊之,3,,13,,,誠実に商売しています。, c3,つくいの
2015/7/2,1043,三滝,三滝,1,,1,,,いい品物を安く！！　少量売りも丁寧に対応しています。, c1,さんたき
2015/7/1,1045,山五,（有）山五商店,3,,16,,,穴子、キス、メゴチなどの天ぷら種専門で品揃（ぞろ）えしています。, c3,やまご
2015/7/1,"1047,1048",上芳,（株）上芳商店,2,,12,,,安くて美味しい魚を、薄利多売でお届けしています。, c2,じょうよし
2015/7/9,"1049,1050",大志,（有）大志水産,"1,7",,6,,,メカジキは質・量ともに日本一、従業員も築地一と自負しています。, c1 c7,だいし
2015/7/9,1051,加藤水産,（有）加藤水産,"2,3,5",,8,,,車エビ・鮮魚を中心に、プロの方から一般の方まで幅広く、活気があり元気な従業員が対応いたします。, c2 c3 c5,かとうすいさん
2015/6/19,5007～8007,太海,太海株式会社,1,,40,,,築地最大のマグロ屋です。うまいマグロにこだわっています。, c1,ふとみ
2015/7/10,"2043,2044",丸勝,（株）丸勝,2,,10,,,明るい従業員が接客します。帳場さんがうちの自慢です！, c2,まるかつ
2015/7/10,"2045,2046",丸一北海屋,株式会社丸一北海屋,"1,2,4,5,7,8,9",,20,,,新しい情報を発信します。, c1 c2 c4 c5 c7 c8 c9,まるいちほっかいや
2015/7/10,2047～2050,亀吉,（有）亀吉商店,"2,3",,20,,,鮮度が命。自分が食べたくなるような魚を、お客様に提供します。大正１０年創業、９４年の歴史があります。, c2 c3,かめきち
2015/7/10,2052,丸泉水産,丸泉水産株式会社,"4,7,8,9",,5,,,鮭・魚卵といった塩干物を中心に、冷凍・合物などを取り扱っております。メンバーも若手に代わり、お客様のニーズにできる限り応えられるよう、一丸となり日々精進しておりますので、何卒（なにとぞ）よろしくお願いいたします。, c4 c7 c8 c9,まるいずみすいさん
2015/7/10,3041,大昌水産,大昌水産株式会社,"2,3,6,12",活魚,10,,,, c2 c3 c6 c12,だいしょうすいさん
2015/7/9,3045,扇留,有限会社扇留,"2,3,4",,14,,,目利きのプロが厳選した質の高さと魚種の豊富さには自信があります。, c2 c3 c4,せんとめ
2015/7/10,3050,大四郎,（有）大四郎,1,,5,,,商人として、お客様に喜んでいただいて役に立つように、品物よかったよ、と言われる仕事に徹しています。堅実な商売をしています。, c1,だいしろう
2015/7/10,3051,（東）志吉,有限会社（東）志吉,1,,3,,,, c1,しよし
2015/7/2,3052,巻島,（有）巻島商店,2,,3,,,日々、品物を売り切って、新鮮なものを提供することを心がけています。, c2,まきしま
2015/6/11,1009,鈴角米勝,（有）スズヨネ水産,"2,3,5",,15,,,スーパーなど量販対応に特化した店になっています., c2 c3 c5,すずかくこめかつ
2015/6/18,5009,<img src='http://www.asahi.com/special/tsukiji/map-nakaoroshi/images/moji/20-1.gif' alt='まるきち'>,東京丸吉,10,,8,,,薩摩揚げなどの練り製品、干物など幅広く扱っています。, c10,まるきち
2015/7/24,"4043,4044",一政水産,（有）一政水産,3,,6,,,たくさんのお店の中から、うちを選んでもらったお客様が、できるだけ得するようがんばります。, c3,いちまさすいさん
2015/7/1,"4045,4046",竹口水産,（株）竹口水産,1,,3,,,安くていいものあります！, c1,たけぐちすいさん
2015/7/9,4047,三益,三益,1,,3,,,, c1,さんます
2015/7/2,"4048,4049",杉とよ,（株）杉とよ,"2,3",,6,,,都内のレストラン・料理屋さんへの配達専門仲卸です。, c2 c3,すぎとよ
2015/7/2,4051,丸光,（有）丸光,1,,2,,,鮮度抜群、生のバチ！, c1,まるみつ
2015/7/9,4052,山徳,山徳,1,,3,,,, c1,やまとく
2015/7/9,"4041,4042,5041,5042",ウエケン,（株）ウエケン,"2,3",,12,,,アナゴは築地で一番多く扱っています。少量売りにも対応。若い従業員が明るく接客します。, c2 c3,うえけん
2015/7/15,5044,王滝水産,王滝水産,"2,3,6,",,5,,,, c2 c3 c6 c,おうたきすいさん
2015/7/10,"5045,5046",トミツネ,（有）富ツネ,1,,6,,,冷凍マグロ、生マグロを扱っています。, c1,とみつね
2015/6/18,5011,虎三,（有）虎三,"7,8,9,10",,3,,,妹と２人でやっています。魚河岸が日本橋にあった時代から続く店です。, c7 c8 c9 c10,とらさん
2015/7/9,5052,内三,（株）内三,"1,2,3,4,5,6,7,8,9,10,11",,1,,,お客さん、まってまーす！, c1 c2 c3 c4 c5 c6 c7 c8 c9 c10 c11,うちさん
2015/7/15,6041,立岡,（株）立岡,"7,10",,2,,,冷凍メカジキ専門店です。, c7 c10,たておか
2015/7/15,6042～6044,大京,大京築地店,"1,2,4,5,6,7,8,9,10",,22,,,鮮魚、大物、冷凍魚、海老と、取り扱いの品が多いです。, c1 c2 c4 c5 c6 c7 c8 c9 c10,だいきょう
2015/7/10,6045～6049,佃熊,（株）佃熊,"1,5",,11,,,より良いものを、より安く提供している店です。, c1 c5,つくくま
2015/7/10,6050,松本,松本,2,,2,,,鯛の専門店です。好みや予算に合わせて様々な種類の鯛を扱っています。, c2,まつもと
2015/7/15,"8045～8050,7089～7092,7045～7046,イ－75～80",やま幸,（株）やま幸,"1,2,3",,50,,,天然マグロといえばやま幸と言われるほど国内外でのブランド価値を得たやま幸。和食文化を継承する料理人から圧倒的な支持を得ており、また近年高級鮮魚の扱いも急伸中。, c1 c2 c3,やまゆき
2015/7/15,8051～8054,稲良商店,稲良商店,1,,20,,,良質のマグロを取りそろえています。, c1,いなりょうしょうてん
2015/7/16,"イ－26,27",東研２号,東研２号,"2,3,4,5,6,7,10",,10,,,季節の魚を多数取り扱い、お客様に安く提供しています。従業員なかよくアットホームな雰囲気です！！, c2 c3 c4 c5 c6 c7 c10,とうけんにごう
2015/7/16,イ－30～32,長野水産,（有）長野水産,3,,7,,,従業員一同、がんばってます！, c3,ながのすいさん
2015/7/15,"イ－33,34",大川鎌新,（株）大川鎌新,"4,7",,7,,,創業は明治時代。信頼のおける仲買店です。, c4 c7,おおかわかましん
2015/7/23,ロ－27,鈴國,鈴國,5,,4,,,日本橋時代より三代にわたって海老に携わっております。現在は、甘エビ、シマエビ、ボタンエビなどの生海老、活車海老、天然を中心に、各種冷凍海老も取り扱っております。, c5,すずくに
2015/7/16,"ロ－29,30",築地本田,有限会社築地本田,"2,3",,8,,,品数豊富に揃えており、幅広く対応できます。小売りもＯＫです！！, c2 c3,つきじほんた
2015/7/15,ロ－33～36、8065～8068,て良,（株）て良,"3,7",,10,,,安心安全の新鮮な魚貝類を取り揃えております。, c3 c7,てりょう
2015/6/11,"5015,5016",佃権,（株）佃権,10,,8（会社全体では１２０）,,,新商品もあり、老舗の味を今に伝えています。一般客にも対応しています。, c10,つくごん
2015/7/15,ハ－31,孝和,（株）孝和,1,,3,,,, c1,こうわ
2015/7/30,"ハ－33,34",丸半佃寅,（有）丸半佃寅,"1,5",,6,,,甘エビは、河岸で一番いいものを扱っています。冷凍本マグロ、冷凍インドマグロも極上ものを置いています。, c1 c5,まるはんつくとら
2015/7/16,ニ－27,濱長,（株）濱長,3,,40,,,「ブランド魚をカジュアル値段で」「ないものは無い」がモットー。鮮魚の加工のための包丁名人もいます。, c3,はまちょう
2015/7/24,1053,明藤,（有）明藤,8,,8,,,日本橋魚市場から続く店です。お客さんの顔を見れば、どんな商品が合うのかわかるスタッフがいます。店名が読みづらいですが、「あ（り）がとう」と覚えてください。, c8,あかとう
2015/7/15,"1055,1056",大秀,（株）大秀,1,,3,,,より良いマグロを厳選し、安定供給できるよう日々努力しています。, c1,だいひで
2015/7/30,1058,亀和,（株）亀和商店,"2,3,7",,23,,,外食のお客様に、自社便で配達しています。海外への輸出も行っています。, c2 c3 c7,かめわ
2015/7/30,2053,布長,（株）布長,1,,9,,,冷凍マグロ全般を、いいものを選別して提供しています。, c1,ふちょう
2015/7/24,2060,渡正,（有）渡正,1,,2,,,, c1,わたしょう
2015/7/23,"2063,2064",築地三代,（株）築地三代,"2,7,12",殻付き牡蠣,6,,,少人数ですが、はりきって営業しています。, c2 c7 c12,つきじさんだい
2015/7/15,"3053,3054",鷲善,（株）鷲善商店,10,,9,,,小田原の蒲鉾（かまぼこ）、大阪のさつま揚げなど、地方の名産品をメインに扱っています。業務用も扱っています。大正時代創業の老舗です。, c10,わしぜん
2015/7/16,3055,村又,（有）村又,"9,10",,4,,,珍味屋です。料理屋さん向けのお酒のおつまみを豊富にそろえています。少量売りにも対応しています。, c9 c10,むらまた
2015/7/23,3056,山けん,（有）山けん,2,,4,,,, c2,やまけん
2015/7/16,"3057,3058",布施,（株）布施水産,1,,8,,,天然の冷凍インドマグロの上ものを販売しています。, c1,ふせ
2015/7/30,3060～3064,熊梅,熊梅,"2,3",,15,,,品ぞろえ豊富で、明るい従業員が接客します。, c2 c3,くまうめ
2015/7/24,4060,布袋寅,（株）布袋寅,"2,3",,13,,,カツオと高級鮮魚専門店です。少量売りにも対応しています。, c2 c3,ほてとら
2015/6/11,"6011,6012",伊勢平,（有）伊勢平,1,,2,,,生の天然物のマグロを扱う店です。, c1,いせへい
2015/7/16,"5053,5054",林田水産,（有）林田水産,2,,7,,,タイ、ヒラメ、サワラなど、近海ものを中心に扱っています。細かい注文にも丁寧に対応しています。, c2,はやしだすいさん
2015/7/24,6055,米彦３号店,（株）米彦,1,,5,,,多い時で２０～３０本あるほど、多くの生マグロを扱っています。, c1,こめひこさんごうてん
2015/7/24,5057,尾辰３号店,尾辰商店,"3,4,12",殻ウニ、貝、殻カキ,3,,,殻ウニ、殻カキを多数ラインナップしています。, c3 c4 c12,おたつさんごうてん
2015/7/24,"5059,5060",網久,（株）網久,1,,2,,,, c1,あみきゅう
2015/7/24,5061～5064,三鉄商店,（株）三鉄商店,2,,10,,,どこよりも良いものを、どこよりも安く！, c2,さんてつしょうてん
2015/7/24,6066,幸栄,（株）幸栄,"4,5,7,9",,15,,,お客様に気持ちよく接するよう心がけています。ぜひいらしてください。, c4 c5 c7 c9,こうえい
2015/7/15,7053～7056,尾寅,（株）尾寅,"1,2,",,6,,,, c1 c2 c,おとら
2015/7/16,7058,小川久,小川久,9,,10,,,江戸日本橋時代からの問屋です。昆布を中心に出汁素材および塩干物全般を扱っています。特に昆布と煮干しの品揃えに自信あり。, c9,おがわきゅう
2015/6/11,6013,内長,（株）内長,"8,9,10",,27,,,シラス、塩干魚に自信があります。扱っている種類が多く、少量売りにも対応します。目利きで有名な佐藤幸治郎さんが、良い魚の見分け方を解説することも。, c8 c9 c10,うちちょう
2015/7/23,7059,堺藤,（有）堺藤,"1,2",,6,,,, c1 c2,さかふじ
2015/7/15,7060～7064,大信,（有）ダイノブ,1,,10,,,生マグロ、冷凍マグロ、生メカジキなどを扱っています。, c1,だいのぶ
2015/7/15,8055～8057,佃井,（株）佃井,3,,8,,,高級鮮魚専門店です。, c3,つくい
2015/7/15,8058～8060,丸源,丸源,"7,10,",,10,,,冷凍カニ類、すしダネ、年末商品、高級佃煮などを扱っています。, c7 c10 c,まるげん
2015/7/16,8061～8064,築地音幸,（株）築地音幸,2,,21,,,社員の平均年齢が３０代と若く活気があります。, c2,つきじおとこう
2015/7/22,イ－38～40,勝元,（株）勝元,"1,2,6",,3,,,タイが安い。マグロも小売りしています。, c1 c2 c6,かつもと
2015/7/15,"イ－41,42",小古間,小古間,3,,6,,,ふぐ各種を取り扱っています。, c3,こごま
2015/7/30,ロ－45～47,大準,（有）大準,3,,6,,,鮮魚なんでもＯＫ。, c3,だいじゅん
2015/7/16,ロ－40,はしば,（有）はしば,3,,6,,,はも、ふぐ、活魚の専門店です。, c3,
2015/8/28,ロ－４１,紀之重分店,紀之重分店,3,,3,,,, c3,きのしげぶんてん
2015/7/16,ロ－42,岩幸商店,（有）岩幸商店,2,,5,,,「旬な魚をお客様に」をモットーにしています。, c2,いわこうしょうてん
2015/7/15,"ハ－35,36",西誠支店,西誠支店,1,,4,,,本物のおいしさを知ってもらえる、天然の生マグロを販売しています。, c1,にしせいしてん
2015/7/22,ハ－37,尾邦分店,尾邦分店,"2,3,6",,3,,,, c2 c3 c6,おくにぶんてん
2015/6/11,7011,はせべ,（株）長谷部商店,"4,8,9",,5,,,ウナギや魚卵に強いです。, c4 c8 c9,
2015/7/21,ハ－42,伊勢市,（有）伊勢市,2,,3,,,いつも新鮮な魚を売っています！, c2,いせいち
2015/7/15,二－33～36,<img src='http://www.asahi.com/special/tsukiji/map-nakaoroshi/images/moji/292-1.gif' alt='かねこ'>金子順商店,金子順商店,"9,10",,9,,,業務用の加工食品・割烹材料・珍味など、６５０種と品数が豊富です。ＴＥＬ：03-3541-0343　E-mail：kensukekanekoあっとmac.com（あっとは＠に変換してください）, c9 c10,かねこじゅんしょうてん
2015/7/22,ニ－37,三清商店,（株）三清商店,"3,4,9,10",,16,,,お客様の要望に応えられるよう、一生懸命頑張っています。, c3 c4 c9 c10,さんきよしょうてん
2015/7/24,"ニ41,42",米彦２号店,（株）米彦,1,,8,,,従業員がみな明るく元気に仕事をしています。, c1,こめひこにごうてん
2015/9/4,1065～1069,<img src='http://www.asahi.com/special/tsukiji/map-nakaoroshi/images/moji/295-1.gif' alt='カネカ'>,（株）カネカ商店,"1,2,3,4,5,6,7,8,9,10,11",,20,,,, c1 c2 c3 c4 c5 c6 c7 c8 c9 c10 c11,カネカ
2015/8/1,1070,尾啓,（有）尾啓水産,"1,2",,5,,,生マグロ、冷凍マグロを中心に、全国的に卸売り販売を行っています。また、各種イベント・パーティーで生マグロ解体ショーを請け負っています。, c1 c2,おけい
2015/7/30,"1071,ロ－32",鰓六水産,鰓六水産（株）,1,,2,,,生鮮から冷凍物まで幅広く取りそろえております。, c1,さいろく
2015/7/23,1072～1074,アツミ水産,（株）アツミ水産,"1,2,6,7,10",,10,,,いい商品を安く提供できるよう、社員一同心がけています。, c1 c2 c6 c7 c10,あつみすいさん
2015/7/23,"1075,1076",丸七,マツノ商店,2,,5,,,生の本マグロ（メジ）をいつでも置いてあるお店です。エビ類から鮮魚まで品数の多いお店です。, c2,まるしち
2015/6/11,"1011,1012",西秀,（株）西秀商店,9,,14,,,スーパーや専門店など長いつきあいの客が多いです。, c9,にしひで
2015/6/11,7014,尾本水産,尾本水産,1,,3,,,さまざまな種類の冷凍マグロを扱っています。, c1,おもとすいさん
2015/7/23,2067～2077　他２２店舗,山治,（株）山治,"2,3,5,6,11",,90,,,すべては、お客様の「うまい！」の笑顔のために！築地魚河岸の市場人として魚のうまさを伝え、世界の人々に魚の〝旨さ〟（春夏秋冬の旬)を伝えます。, c2 c3 c5 c6 c11,やまはる
2015/7/30,"7113～7120,3065～3072",山八,（株）山八,"2,3,4,5,6",,77,,,良い品物をより安く販売しています。, c2 c3 c4 c5 c6,やまはち
2015/7/31,3074～3076,まぐろ藤田,（株）フジタ水産,1,,7,,,国産の生天然本マグロが中心です。, c1,まぐろふじた
2015/7/23,"4065,4066",<img src='http://www.asahi.com/special/tsukiji/map-nakaoroshi/images/moji/304-1.gif' alt='かねにんべん'>石沢,（有）石澤,"3,10",,15,,,高級魚を扱っています。練り製品は自社製造です。, c3 c10,かねにんべん石沢
2015/7/30,"4067,4068",山<img src='http://www.asahi.com/special/tsukiji/map-nakaoroshi/images/moji/305-2.gif' alt='じょう'>,（有）山（じょう）商店,1,,3,,,家族でやっているお店です。, c1,やまじょう
2015/7/23,4069,大圭,（有）大圭,12,魚卵,1,,,より良き商品のみです。, c12,だいけい
2015/7/31,4070,山市,有限会社山市,1,,1,,,ユネスコ無形文化遺産に登録された日本食。洋食文化におされながらも寿司、特にマグロは人気メニューです。築地に世界各地からやってくるマグロは、一本一本色や味も違います。お客様に美味しい品物を提供するために買ったマグロが自分の思ったとおりであるよう、大きな包丁でマグロを切り下ろす瞬間の緊張感はたまりません。これがこの仕事の生きがいですかね～。マグロは時期、入荷状況でお安く提供できると思います。是非お立ち寄り下さい。どうぞ、よろしくお願いします。マグロ山市　三代目店主, c1,やまいち
2015/7/31,"4071,4072",松広,（有）松広,"3,5,6,9",,6,,,当店は家族的な雰囲気の店で、取り扱う商品は高級すし種、活魚、ふぐなどです。, c3 c5 c6 c9,まつひろ
2015/7/31,4073,泉千,泉千２号,5,,1,,,, c5,いずせん
2015/8/7,4073,亀正,（有）亀正,2,,2,,,, c2,かめしょう
2015/7/24,5065～5070、5075,渡福,（有）渡福商店,1,,14,,,, c1,わたふく
2015/7/30,5071,長沢,長沢商店,1,,2,,,冷凍マグロの専門店です。ご要望に合わせてそろえます。サク取りも致します。お気軽に声かけして下さい。, c1,ながさわ
2015/7/24,5076,和久保,（有）和久保水産,"2,6",,4,,,, c2 c6,わくぼ
2015/8/7,6067,池亀,池亀,6,,7,,,タコの専門店です。自社加工したものも扱っています。, c6,いけかめ
2015/7/30,6068～6070,祝繁,（有）祝繁,"1,2,3,4,5,6,7,9",,13,,,社長を筆頭に元気で明るく活気のある店です。魚の事なら、なんでも社長へ！, c1 c2 c3 c4 c5 c6 c7 c9,のりしげ
2015/7/27,6075－6078,北晃水産,北晃水産株式会社,"2,3,4,7",,14,,,１９５０（昭和２５）年創業。鮭鱒・魚卵を中心に、かに類、鮮魚、特種物、冷凍魚など幅広く取り扱っています。また、商品に対する目利きには定評があり、高級料理店、高品質スーパーマーケットをはじめ多くのお取引先様に絶大な信頼をいただいております。, c2 c3 c4 c7,ほっこうすいさん
2015/8/6,7065,海源,（有）海源,11,,4,,,ウナギをさばく技術、加工する技術が売りのお店です。, c11,かいげん
2015/7/31,7066,宮商築地,宮商築地,1,,2,,,, c1,みやしょうつきじ
2015/7/30,"7067,7068",登美粋,（株）ワールドフーズ,"5,12",鯨、カニ,6,,,年間商材として、常に鯨をおいているのは、築地に２店だけです。, c5 c12,とみすい
2015/7/30,7069.7070,熊川,（有）熊川商店,1,,5,,,何でも一生懸命やります！, c1,くまかわ
2015/7/23,7071,大六,（有）大六,"3,5,7",,3,,,築地で数少ない、ザリガニを扱っているお店です。, c3 c5 c7,だいろく
2015/7/23,7073～7076,貴泉,（株）貴泉,"2,3",,10,,,活魚が豊富で、活気のあるお店です。, c2 c3,きせん
2015/7/30,"8069,8070",扇安,（株）扇安,"2,3,4,5,6,7,10",,4,,,兄弟でやっているお店です。魚種は豊富で、細かい注文にも対応しています。, c2 c3 c4 c5 c6 c7 c10,せんやす
2015/6/11,8009,小林川魚,（株）小林川魚,11,,5,,,いろんな種類のウナギを扱っています。蒲焼きも製造します。, c11,こばやしかわうお
2015/7/30,8071,恵洋,（株）恵洋水産,1,,3,,,, c1,けいよう
2015/7/23,イ－43,丸定,（有）丸定,"3,5",,4,,,止め物は置かず、売り切ることを心がけています。少量売りにも対応しています。, c3 c5,まるさだ
2015/7/30,"ニ－45,46",国吉,国吉,10,,10,,,各種すり身をそろえています。小田原の「鈴廣」特約店です。, c10,くによし
2015/8/6,イ－47,虎秀支店,（有）虎秀,1,,1,,,, c1,とらひでしてん
2015/7/27,イ－48,和田,（有）和田食品,2,,4,,,甲イカ、ヤリイカ、ヒイカ、スルメ、アオリイカ、スミイカ、三瓶アジ、豊後アジなどは鮮度抜群です。, c2,わだ
2015/7/31,"イ－49,50",北繁,北繁商店,"4,7",,4,,,, c4 c7,きたしげ
2015/6/11,8011,丸隆石川,（株）丸隆石川水産,"2,3,7",,12,,,いいものを幅広く、がモットーです。, c2 c3 c7,まるたかいしかわ
2015/6/19,"ロ－43,44、ニ－11",米銀,（株）米銀,"2,3",,12,,,品揃えは豊富です。元気で個性豊かな従業員が接客します。, c2 c3,こめぎん
2015/7/30,ロ－49,鈴一,（有）鈴一,5,,3,,,, c5,すずいち
2015/7/30,ロ－50,尾辰1号店,（株）尾辰商店,2,,10,,,高級鮮魚をリーズナブルに。, c2,おたついちごうてん
2015/8/6,"ハ－43,44",鈴千代,（有）清和商事,"2,3",,7,,,若い従業員がいっぱいで明るく活気があります。, c2 c3,すずちよ
2015/7/31,ハ－45,石福,石福,10,,4,,,, c10,いしふく
2015/7/30,ハ－46～50,<img src='http://www.asahi.com/special/tsukiji/map-nakaoroshi/images/moji/347-1.gif' alt='やまさ'>岩田,（株）岩田,"2,3,7",,20,,,若い従業員が元気よく接客します。, c2 c3 c7,やまさいわた
2015/8/6,ニ－43,佃幸,（株）佃幸,2,,4,,,, c2,つくこう
2015/8/28,ニ－44,山忠,（有）山忠,"4,8,9",,4,,,, c4 c8 c9,やまちゅう
2015/6/11,8014,網弁,網弁商店,1,,5,,,天然マグロしか扱っていません。, c1,あみべん
2015/7/31,ニ－46,大政支店,（有）小槻,6,,3,,,色んな種類のタコを扱っています。, c6,だいまさしてん
2015/8/6,"ニ－47,48",石時,石時,1,,3,,,消費者の味方です。, c1,いしとき
2015/7/30,ニ－49,山雄,（株）山雄商事,"1,2,3",,3,,,官庁から街の居酒屋まで、新鮮な魚をお届けしています。, c1 c2 c3,やまゆう
2015/7/30,ニ－50,丸十,（有）丸十高橋,3,,3,,,光りもの、江戸前のアナゴ、三陸のアカガイなどをそろえています。, c3,まるじゅう
2015/8/7,1077～1080,上崎,（有）上崎,1,,10,,,国内だけでなく、香港のスーパーにもマグロを出しています。, c1,かみざき
2015/8/28,1081,鮪の山口,（有）鮪の山口,1,,9,,,, c1,まぐろのやまぐち
2015/8/7,1084,釣十,（株）釣十,"1,11",,3,,,どじょうもやっています。, c1 c11,つるじゅう
2015/6/11,"8015,8016",紀留水産,紀留水産,"2,3",,7,,,上物鮮魚が売りです。小売りも対応しています。, c2 c3,きとめすいさん
2015/7/30,1087～1090,政丸,（有）政丸,"1,2",,10,,,鮮度と安さと対応力！！, c1 c2,まさまる
2015/7/31,2079～2082,新石,新石商店,"2,3,5",,30,,,, c2 c3 c5,しんいし
2015/7/31,2084,小正,（株）小正商店,"2,6,7",,5,,,タコやサバ、アジ、タイ、のどぐろなど、高級魚まで多々あります。小売りもしているので、よろしくお願いします。, c2 c6 c7,こしょう
2015/8/7,2086,鈴兼,（有）築地中真,2,,3,,,セリ値と同じくらいの値段で売ることを目指し、魚を吟味しています。, c2,すずかね
2015/8/7,"3077～3081,4075,4076",相馬水産,（有）相馬水産,1,,12,,,大間の特上マグロから安いバチまで、マグロなら何でもそろいます。少量売りにも対応しています。, c1,そうますいさん
2015/6/11,イ－5～8,大作,（株）大作早山商店,1,,7,,,生から冷凍まで幅広くやっています。パック売りも対応可です。, c1,だいさく
2015/8/7,"4077,4078",米恵,（有）米恵,1,,4,,,, c1,こめけい
2015/8/19,"4081,4082",伊勢栄,（有）伊勢栄,1,,2,,,, c1,いせえい
2015/8/6,"4083,4084",菊市,（株）菊市,"5,12",カニ,7,,,, c5 c12,きくいち
2015/7/31,4085～4088,山三秋山,（株）山三秋山,10,,9,,,オンリーワン惣菜販売。, c10,やまさんあきやま
2015/8/20,5077～5080,徳永,（有）徳永水産,"2,3,5",,10,,,海老、カニのいつも最高のものを扱っています。, c2 c3 c5,とくなが
2015/8/19,5084～5088,<img src='http://www.asahi.com/special/tsukiji/map-nakaoroshi/images/moji/388-1.gif' alt='かわしょう'>川正,（株）川正,"2,4,7,8,9",,10,,,, c2 c4 c7 c8 c9,かわしょう
2015/6/11,"イ－9,10",光田大政,光田大政商店,3,,5,,,ウニをメインで扱っています。, c3,みつただいまさ
2015/8/19,6081,平井支店,平井支店,5,,3,,,, c5,ひらいしてん
2015/8/13,6079,八木正,（有）八木正,"2,12",,4,,,活魚, c2 c12,やぎしょう
2015/8/7,6083～6085,石司,（有）石司商店,1,,8,,,, c1,いしじ
2015/8/27,6086～6088,内藤,（有）内藤,"2,3,12",,,,,活魚, c2 c3 c12,ないとう
2015/8/19,7079～7081,アツミ水産,（株）アツミ水産,1,,9,,,, c1,あつみすいさん
2015/9/3,7082～7088,樋長,樋長,1,,17,,,マグロ一筋１６０年になります。, c1,ひちょう
2015/8/20,"8077,8078",福芳,（有）福芳,3,,4,,,, c3,ふくよし
2015/6/11,1013～1016,渡辺,（株）渡辺商店,"2,3",,13,,,貝類のプロが対応します。少量から対応しています。, c2 c3,わたなべ
2015/8/19,8079,築地市川,築地市川水産（株）,"1,2,3,4,5,6,7,8,9,10,12",,38,,,珍味, c1 c2 c3 c4 c5 c6 c7 c8 c9 c10 c12,つきじいちかわ
2015/8/19,イ－51,信永商店,（株）信永商店,"7,12",,2,,,魚卵, c7 c12,しんえいしょうてん
2015/8/19,イ－52～54,滝治,（有）滝治,"7,8,9,10",,14,,,, c7 c8 c9 c10,たきじ
2015/8/19,"イ－55,56",尾邦,（有）尾邦,"2,3,12",,6,,,活魚, c2 c3 c12,おくに
2015/8/20,"イ－57,58",松林水産,（株）松林水産,1,,3,,,, c1,まつばやしすいさん
2015/8/19,ロ－52,久世,（株）久世,1,,2,,,, c1,くぜ
2015/8/20,ロ－53,伏仲,（株）伏仲,10,,7,,,, c10,ふしなか
2015/8/20,"ロ－55,56",宇田政,（有）宇田政,3,,5,,,, c3,うだまさ
2015/8/20,ロ－57,磯多紀,（株）磯多紀,2,,5,,,, c2,いそたき
2015/6/25,ロ－5,玉越,（株）玉越,"2,3",,5,,,従業員一同、親しみやすい雰囲気での接客をモットーにしています, c2 c3,たまこし
2015/8/21,"ハ－51,52",丸六,（株）丸六,3,,6,,,, c3,まるろく
2015/8/20,ハ－55,戸田水産,（有）戸田水産,"1,3",,5,,,, c1 c3,とだすいさん
2015/8/19,ハ－56,布袋長,（株）布袋長,3,,4,,,, c3,ほていちょう
2015/8/20,"ニ－51,52",<img src='http://www.asahi.com/special/tsukiji/map-nakaoroshi/images/moji/416-1.gif' alt='やまいし'>小林,（有）ヤマイシ小林,"4,7,9,10",,9,,,, c4 c7 c9 c10,やまいしこばやし
2015/9/3,1091～1094,杉原水産,杉原水産,"2,3,4,5,6,7,8,9,10,11,12",カニ、クジラ,10,,,, c2 c3 c4 c5 c6 c7 c8 c9 c10 c11 c12,すぎはらすいさん
2015/6/11,ロ－6,松幸,（有）松幸,1,,3,,,本マグロ、バチ、カジキなど、「マグロ」と名のつくものなら何でも扱っています。お客さんの要望があれば、何でも対応します。, c1,まつこう
2015/9/11,"1097～1104,2100",堺周,（株）堺周商店,"1,2,3,4,5,6,7,8,9,10,11,12",ふぐ、活魚,65,,,日本橋時代からある老舗。「お客様をもうけさせることが企業長寿の秘訣」をモットーにしています。, c1 c2 c3 c4 c5 c6 c7 c8 c9 c10 c11 c12,さかしゅう
2015/8/27,2089～2090,大長,大長商店,1,,5,,,, c1,だいちょう
2015/8/27,2089,幸栄商店,（株）幸栄商店３号店,"1,7",,4,,,, c1 c7,こうえいしょうてん
2015/9/3,3091～3094,山源水産,（株）山源水産,3,,15,,,明るい雰囲気のお店です。, c3,やまげんすいさん
2015/8/27,2095,佃昇,（株）佃昇,1,,7,,,, c1,つくしょう
2015/8/27,3090,菊市,（株）菊市,3,,9,,,, c3,きくいち
2015/6/11,ロ－7,大喜（大食）,大食,10,,1,,,数少ないクジラ専門の店です, c10,だいき（だいしょく）
2015/8/27,"3095,3096",丸喜大一水産,丸喜大一水産株式会社,"4,7,9",,6,,,, c4 c7 c9,まるきだいいちすいさん
2015/8/27,3099～3100,ニッコン,（株）ニッコンサービス,7,,32,,,, c7,にっこん
2015/8/27,4089～4090,萩原,（株）萩原商店,1,,1,,,, c1,はぎわら
2015/9/3,4093,布袋徳,布袋徳,"2,3,4,5,7",,2,,,当店では６割を寿司屋、居酒屋、割烹料亭に納品させて頂いております。後の約４割は日本人に人気のあるアジア系の洋食レストランへ３５年以上現在にいたるまで納品しております。様々な客層がおり頑張らせていただいております。, c2 c3 c4 c5 c7,ほていとく
2015/6/25,ロ－8,松井水産,松井水産株式会社,1,,6,,,値段で勝負です！, c1,まついすいさん
2015/9/3,"4096,6038,6039",<img src='http://www.asahi.com/special/tsukiji/map-nakaoroshi/images/moji/440-1.gif' alt='まるせ'>山仁,（有）クロセ,"2,3",,6,,,活魚中心にやっています。, c2 c3,まるせやまじん
2015/8/27,"2114,4099～4100",牧和水産,牧和水産株式会社,3,,7,,,, c3,まきわすいさん
2015/9/3,5089～5094,大芳,（株）大芳,3,,25,,,築地市場の文化を継承し、豊洲市場で新しい歴史を築いていきたいと思っております。, c3,だいよし
2015/9/3,"5097,5098",伊勢千代,（株）伊勢千代佃彦水産,2,,6,,,魚は鮮度が一番。, c2,いせちよ
2015/9/4,5099,三侑,（有）三侑,"1,3",,2,,,, c1 c3,さんゆう
2015/9/3,5100,カネフジ,（株）カネフジ,2,,6,,,, c2,かねふじ
2015/9/4,6089～6091,泉正,（有）泉正,3,,10,,,鮨種を中心に鮮魚、貝類を扱っている店です。, c3,いずしょう
2015/8/28,"6093,6094",町喜,（有）町喜,"1,2",,5,,,高級マグロと寿司種両方取り扱っています。宜しくお願いいたします。, c1 c2,まちき
2015/9/4,6097～6100,岡善,（有）岡善,"2,12",貝類,8,,,いいモノを安く！, c2 c12,おかぜん
2015/9/3,7089～7092,やま幸幸宮事業部,（株）やま幸,1,,6,,,新規立ち上げの事業部です。よろしくお願いします。, c1,やまゆきゆきみやじぎょうぶ
2015/8/28,7094,中源,（有）中源,"2,3,5,6,12",珍味、イクラ各種,3,,,その魚の旬、一番良い漁場からの魚を用意するようにしています。, c2 c3 c5 c6 c12,なかげん
2015/9/3,"7097,7098",芳野分店,（有）芳野分店,3,,5,,,穴子の仲卸。直営の穴子専門の飲食店もあります。, c3,よしのぶんてん
2015/9/3,7110,米三,（有）米三,"2,3",,2,,,鮮度が良く、うまい魚を安く卸す。その日の魚はその日に売り切るがコンセプト。, c2 c3,こめさん
2015/9/3,"8089,8090",丸健,（株）丸健,3,,8,,,国内外への超高級鮮魚をはじめあらゆる食材のご提供。「元気な目利きの」お店です。, c3,まるけん
2015/9/3,"8091,8092",モリヤ三昌,(株）モリヤ三昌,"1,3,4,9",,6,,,商品にはこだわりを持って売っています。, c1 c3 c4 c9,もりやさんしょう
2015/9/3,"8093,8094",太誠,（株）太誠,"2,12",ノルウェーサーモン,3,,,うまいさかな！！いらっしゃいませ！！, c2 c12,たいせい
2015/8/27,イ－59,銀茂,（株）銀茂,"7,8,9,10,12",,12,,,魚卵, c7 c8 c9 c10 c12,ぎんしげ
2015/8/28,イ－62～63,<img src='http://www.asahi.com/special/tsukiji/map-nakaoroshi/images/moji/471-1.gif' alt='まるきち'>小島,有限会社丸吉小島,"1,2,5,6",,6,,,, c1 c2 c5 c6,まるきちこじま
2015/8/28,ロ－59,伏一,（株）伏一,2,,2,,,, c2,ふしいち
2015/8/27,ロ－61,三協,（有）真部水産,2,,2,,,, c2,さんきょう
2015/9/3,ロ－62,アツミ水産,（株）アツミ水産,1,,3,,,元気に営業中！！, c1,あつみすいさん
2015/6/26,"ハ－5,6",<img src='http://www.asahi.com/special/tsukiji/map-nakaoroshi/images/moji/48-1.gif' alt='義'>高陽,株式会社　高陽,"1,2,3,4,5,6,7,8,9,10",,27,,,本マグロや一般大衆魚を中心に、アサリ・シジミ、アジやサンマの冷凍塩干魚などを部門分けして各担当を配置。量販店のバイヤー様に満足いただける品物や情報の供給に努めています。, c1 c2 c3 c4 c5 c6 c7 c8 c9 c10,かねよし　こうよう
2015/7/15,"ロ－65,66、イ－65",シマヅ,（有）島津商店,3,,9,,,気の利いた魚を置いています。, c3,しまづ
2015/8/27,"ハ－59,60",本芳,（有）本芳,2,,5,,,, c2,ほんよし
2015/8/20,ハ－61～63,樋徳,（株）樋徳商店,"2,3",,10,,,, c2 c3,ひとく
2015/8/28,ハ－64,森長,（有）森長,1,,1,,,, c1,もりちょう
2015/8/28,ハ－66,築地大谷,（株）築地大谷,3,,4,,,, c3,つきじおおたに
2015/8/19,"ニ－53～58,59～64",栄光水産,栄光水産株式会社,"1,2,3,5,8,9,10",,40,,,, c1 c2 c3 c5 c8 c9 c10,えいこうすいさん
2015/8/27,ニ－65,宮一,（有）宮一,1,,4,,,, c1,みやいち
2015/6/19,ハ－7～8,本橋,（有）本橋,"2,4,5,6,7,9,10,11",,6,,,創業は１９３６（昭和１１）年。食の安心安全をモットーに、旬の魚・鮮度の良い魚を提供いたしております。, c2 c4 c5 c6 c7 c9 c10 c11,もとはし
2015/9/4,1105,伊勢国,（有）伊勢国,2,,4,,,近海物を扱うお店です。, c2,いせくに
2015/10/1,1107～1113,亀谷,（株）亀谷,"1,2,3,4,6,8,9",,35,,,鮮魚全般、貝類、マグロからシラスまで広範囲な品揃（ぞろ）えをしております。, c1 c2 c3 c4 c6 c8 c9,かめたに
2015/8/28,"2101,2102",山松,（有）岡田山松商店,2,,4,,,, c2,やままつ
2015/9/4,"2103,2104",高富,（有）宮下商事,3,,6,,,良い物を安く。, c3,たかとみ
2015/8/28,2105～2110,佃吉,佃吉水産,1,,9,,,まぐろ類なら何でもあります。まぐろ、ばち、かじき。生から冷凍も！, c1,つくきち
2015/9/4,"2111,2112,1106,ハ－38",倉田,（有）倉田商店,"2,7",,11,,,業歴５０年以上の水産仲卸として培ってきた目利きにより、築地市場に入荷する良質な水産物の販売をしております。また、提携先の全国の希少で高鮮度な産地直送品を使った干物や漬魚の製造・販売をしております。, c2 c7,くらた
2015/9/3,"4101,4102",丸蒲食品,（有）丸蒲食品,10,,5,,,３０数種類のすり身を取り扱っています。更に種類を増やそうと思います。, c10,まるかましょくひん
2015/9/3,"4105,4106",近長,近長,9,,4,,,昆布、鰹節、煮干などダシに使うものを取り扱っています。, c9,きんちょう
2015/9/3,4107,築地仲代,株式会社築地仲代,"4,9",,3,,,, c4 c9,つきじなかだい
2015/9/3,"4108,4109",泉栄藤井,（有）泉栄藤井,12,佃煮、総菜、珍味,5,,,大正１２（１９２３）年１０月、泉澤猪之吉が佃煮、海産物問屋「泉栄商店」を創業。以来、９０余年続いている老舗です。, c12,いずえいふじい
2015/9/10,5101～5104,富市,（株）富市商店,2,,12,,,, c2,とみいち
2015/9/10,"5107,5108",鈴与,鈴与,1,,4,,,, c1,すずよ
2015/9/10,5109,大丑,大丑,1,,2,,,, c1,だいうし
2015/9/11,"5110～5112,6111,6112",イソベ,（株）イソベ,"1,2,5,10",,8,,,, c1 c2 c5 c10,いそべ
2015/9/11,"6101,6102",栄徳,栄徳,"1,2",,2,,,冷凍マグロを扱っています。, c1 c2,えいとく
2015/9/10,6103～6105,越一,（有）越一,2,,8,,,白イカ、ヤリイカ、貝類に力を入れています。いいものを安く提供するよう心がけています。, c2,こしいち
2015/9/10,6106,滝八,（株）滝八商店,1,,4,,,天然の冷凍インドマグロを扱っています。より良いものを、より安く！, c1,たきはち
2015/6/19,ハ－10,浜水,（有）浜水,1,,1,,,祖父から３代続けてマグロを扱っています。新市場には移転しません。, c1,はますい
2015/9/10,6107～6110,東研,（有）東京海洋資源研究所,12,鯨,10,,,築地で唯一の鯨専門店です。, c12,とうけん
2015/9/10,"7101～7103,7099,ハ－17",伊勢田,（株）伊勢田水産,2,,16,,,常時、多種多様な鮮魚を取りそろえております。, c2,いせだ
2015/9/11,"7104,7105",いりやま栄大雄,（株）大雄,"2,3",,5,,,, c2 c3,いりやまえいだいゆう
2015/9/10,7109,前川,（株）前川,2,,3,,,光りものに力を入れています。, c2,まえかわ
2015/9/11,7110,橘,橘,1,,2,,,, c1,たちばな
2015/10/15,7112,伏梅商店,伏梅商店,3,,5,,,寿司だね全般を扱っています。魚をさばいても売っています。, c3,ふしうめ
2015/6/18,"ニ－1,2",鷲健,鷲健,"9,10",,5,,,, c9 c10,わしけん
2015/9/18,"8101,8102",伏健,（株）伏健,10,,5,,,私共はかまぼこ問屋として三代にわたり五十年余り仲買として営業して参りました。これも偏にメーカー、お客様が永くお付き合い下さいましたお陰と感謝しております。今後新豊洲市場におきましても、今以上努力して参りたいと思っております。, c10,ふしけん
2015/9/18,"8103,8104",大音,大音,2,,6,,,, c2,だいおと
2015/9/10,8107～8110,湯浅,（株）湯浅商店,1,,3,,,独立９年目の新しい店です。生マグロの良い物を扱っています。, c1,ゆあさ
2015/9/10,8111,伊勢長,伊勢長,1,,3,,,, c1,いせちょう
2015/8/28,イ－67～71,旭水産,旭水産（株）,3,,13,,,, c3,あさひすいさん
2015/9/10,イ－71、72,八海,（株）八海,3,,8,,,元気だけがとりえです。, c3,はっかい
2015/9/11,"イ－73,74",皆栄,（株）皆栄,"2,3,6",,10,,,, c2 c3 c6,かいえい
2015/6/18,ニ－3,柴原,（有）柴原商店,8,,2,,,おいしいものを安く扱っています。, c8,しばはら
2015/9/11,ロ－６８～７０,三升,（有）三升,"4,7,9",,5,,,さんますオリジナルのおいしいサケの切り身ありますよ。, c4 c7 c9,さんます
2015/9/11,ロ－72～74、ロ－64、6082,大仲,（株）大仲,3,,11,,,気骨稜々と日々、お客様の繁盛を願って商いをしております。「気持ち良く働こう！！」をモットーとしています。, c3,だいなか
2015/9/3,"ハ－67,68",松勇,（有）松勇水産,3,,5,,,, c3,まつゆう
2015/9/17,ハ－70～74,佐和久,（株）佐和久,"1,2,3,4,5,6",,18,,,マグロから鮮魚まで何でもあります。, c1 c2 c3 c4 c5 c6,さわきゅう
2015/9/9,ハ－６５、二－６７，６８,桜井三善,（株）桜井三善水産,3,,8,,,誠心誠意。, c3,さくらいさんぜん
2015/9/4,ニ－６９,鈴友三浦水産,（有）鈴友三浦水産,1,,4,,,上物から特売用までマグロを幅広く取り扱っています。個人店ならではの対応でお客様のニーズにお応えします。, c1,すずともみうらすいさん
2015/9/11,6158,丸佳,（株）丸佳,"2,3",,6,,,, c2 c3,まるよし
2015/9/10,ニ－73,並木,（有）並木,1,,2,,,, c1,なみき
2015/9/10,ニ－74,平岩,平岩商店,3,,2,,,親切な対応販売を心がけています。, c3,ひらいわ
2015/9/24,1114,創和,（株）創和,1,,3,,,お客様の信頼に応えられるよう、とにかく誠実にやっています。, c1,そうわ
2015/9/18,1116,一瀬,（有）一瀬商店,1,,1,,,美味しい鮪、取り扱っています。, c1,いちのせ
2015/9/25,1117,協伸,（有）協伸,"2,3",,8,,,アットホームで従業員みんな仲良しなお店です。品数豊富で新鮮な魚を提供しています。, c2 c3,きょうしん
2015/9/24,"1119,1120",丸茂,丸茂,1,,5,,,若い精鋭ぞろいです。, c1,まるしげ
2015/9/24,"2113,2114",篠原,篠原商店,"4,9,10",,6,,,しらす干し、ちりめん、明太子、佃煮などを扱っています。, c4 c9 c10,しのはら
2015/6/18,"ニ－5,6,8",尾道,尾道商店,"2,3,4,6",,6,,,寿司ダネを豊富にそろえています。, c2 c3 c4 c6,おみち
2015/10/8,2115～2119,恵水産,（株）恵水産,1,,33,,,鮪（まぐろ）の仲卸より始まり、現在では鮮魚・冷凍品、加工品などの取り扱いもあります。ご注文ごとに加工（サク取りなど）を行い、全国各地へ発送いたします。, c1,めぐみすいさん
2015/9/11,3113,福田,（株）福田商店,2,,6,,,近海物、鮮魚を中心に寿司だねなどを扱っています。, c2,ふくだ
2015/9/18,3014,水栄,水栄,5,,4,,,, c5,みずえい
2015/9/18,3115,丸吾,丸吾,11,,5,,,, c11,まるご
2015/9/24,3116,網又,網又,1,,1,,,, c1,あみまた
2015/9/18,3117,宮彦,宮彦,3,,9,,,とにかく明るいお店です。, c3,みやひこ
2015/9/11,3119,十栄,十栄,4,,2,,,日本橋時代から続く鮭屋の３代目です。, c4,じゅうえい
2015/6/19,ニ－7,<img src='http://www.asahi.com/special/tsukiji/map-nakaoroshi/images/moji/56-1.gif' alt='かねじゅう'>,三橋徳好,1,,1,,,マカジキ専門の店です。, c1,かねじゅう
2015/9/18,4113～4116,樋泉,（株）樋泉商店,"2,3,5,7",,12,,,若手が多く活気があります。, c2 c3 c5 c7,ひいずみ
2015/9/11,4118,<img src='http://www.asahi.com/special/tsukiji/map-nakaoroshi/images/moji/561-1.gif' alt='やましょう'>,（株）山庄,9,,3,,,しらす、ちりめんを扱っています。, c9,やましょう
2015/9/24,4119,松慶,松慶,1,,4,,,生マグロを扱う店です。, c1,まつけい
2015/9/18,5115,富士恭,（株）富士恭,"1,2,3,4,6",,20,,,, c1 c2 c3 c4 c6,ふじきょう
2015/9/24,5119,侑圭,（株）侑圭,"4,7,8,9",,6,,,, c4 c7 c8 c9,ゆうけい
2015/9/18,6117～6120,蔵立,（有）蔵立,"2,3",,14,,,高級寿司店を中心にした品揃えをしつつ、デリバリーでは飲食チェーン店にも対応。, c2 c3,くらたつ
2015/9/17,7113～7120､3065～3072,山八,（株）山八,"2,3,6",,77,,,すし種を中心に取り扱っております。鮮度を重視し、その日に仕入れた食材はその日に販売するように心掛けています。, c2 c3 c6,やまはち
2015/9/17,8113～8118,大雍,（有）大雍商店,"3,5",,26,,,, c3 c5,ダイヨオ
2015/9/16,"8120,8121",丸利,（株）丸利,"2,3",,25,,,イイ男たちがイイ魚を揃えてお客様の力になります！, c2 c3,まるとし
2015/9/16,イ－81､82、3122、4141～4143,堺浜,（株）なり市堺浜,"1,2,3,7",,20,,,従業員が自分自身で考え、行動します！, c1 c2 c3 c7,さかはま
2015/9/17,"ロ－77,78",市原,市原商店,1,,5,,,冷凍マグロの上物を扱っています。, c1,いちはら
2015/9/17,ロ－79,伊勢八,（有）伊勢八,1,,1,,,大物と言いますが、メカジキを主に取り扱っています。, c1,いせはち
2015/6/19,ニ－9,大文,大文水産,"1,6",,5,,,気軽に声をかけてくだされば、喜んでお答えします。, c1 c6,だいぶん
2015/9/11,ハ－７５,山助,山助,1,,2,,,, c1,やますけ
2015/9/11,ハ－７６,藤康,（有）藤康,1,,4,,,, c1,ふじこう
2015/9/4,ハ－７７,やまふ水産,（株）やまふ水産,"1,2,3,4,5,6,7",,45,,,寿司、割烹、魚介全般に品ぞろえしております。, c1 c2 c3 c4 c5 c6 c7,やまふすいさん
2015/9/11,二－75,篠一,（有）篠一,3,,5,,,魚類はイワシからハモまで、貝類はアサリから生貝を多種類揃えています。, c3,しのいち
2015/9/11,二－76,大閣,（有）大閣,1,,8,,,天然生本マグロ、冷凍本マグロを中心に上質のマグロをお客様のご要望に合わせてご用意させて頂いております。, c1,だいかく
2015/9/11,二－77、78,幸樹水産,幸樹水産（株）,3,,4,,,活蟹の専門店です。要望があれば冷凍品も用意します。毛蟹、タラバ、ズワイ、松葉、ワタリ、上海蟹など。, c3,こうじゅすいさん
2015/9/24,ニ－82、ハ－4,網和網治,（有）本網ハル一,2,,4,,,現在の社長、新井教之は三代目。初代（祖父）は日本橋時代、奉公先からのれん分けしてもらって独立。９０年以上看板を守り現在に至る。デパ地下、スーパー等に鮮魚を卸しています。当店の扱った魚が納入先で、きれいに商品化され売られていることに喜びを感じております。, c2,あみわあみはる
2015/9/24,1128,三富,（有）新開水産,"2,3,4,5,6",,23,,,鮮度の良い旬の魚を安く提供できるよう、日々努力しています。, c2 c3 c4 c5 c6,さんとみ
2015/6/25,"1017,1018",山重,（有）山重,1,,3,,,日々精進しています。今の築地のことを後世に残していけたらと思っています。, c1,やましげ
2015/9/16,7125,芳三,（株）芳三淡水,11,,5,,,, c11,よしみ
2015/9/24,7126,伏平分店,伏平分店,2,,1,,,, c2,ふしへいぶんてん
2015/9/24,7127、7128,伊藤食品,（株）伊藤食品,"5,7,12",カニ、クジラ,6,,,我が社には社長や専務、部長などの役職はありません。ファミリー、友達だけです。呼ぶ時はニックネームか名前です。天使と悪魔、熊、デカッチッ、司、マサの六人です。, c5 c7 c12,いとうしょくひん
2015/9/17,8124,<img src='http://www.asahi.com/special/tsukiji/map-nakaoroshi/images/moji/595-1.gif' alt='まるす'>丸鈴,<img src='images/moji/595-1.gif' alt='まるす'>丸鈴,1,,2,,,マグロを中心とし、本マグロや生マグロも取り扱っています。, c1,まるすまるすず
2015/9/16,8125,<img src='http://www.asahi.com/special/tsukiji/map-nakaoroshi/images/moji/596-1.gif' alt='まるつ'>尾清,（株）マルツ尾清,"2,3,5,6,7,8,9,10",,30,,,１９３６（昭和１１）年の創業時より、築地市場にてお客様にご満足頂ける物を提供できるよう日々努めております。, c2 c3 c5 c6 c7 c8 c9 c10,まるつおせい
2015/9/17,イ－86,水音水産,（有）水音水産,2,,5,,,, c2,みずおとすいさん
2015/7/2,イ－87～89,誠和水産,誠和水産,2,,16,,,寿司種、天ぷら種を主に扱っています。, c2,せいわすいさん
2015/6/19,2009～2011,内藤,（有）内藤,"1,2",,14,,,良質でおいしいマグロを扱っています。, c1 c2,ないとう
2015/6/19,1019,亀本,亀本商店,"2,3,6,7",,30,,,いろんな種類の魚を幅広く扱っています。, c2 c3 c6 c7,かめもと
2015/9/16,ロ－85,米磯,米磯,1,,2,,,生マグロ専門。少量から販売しております。, c1,こめいそ
2015/9/16,ロ－88～90,山福,（有）山福,3,,12,,,うにを中心に寿し種を提供しています。, c3,やまふく
2015/9/17,"ハ－89,90",柳下,柳下,10,,5,,,, c10,やぎした
2015/9/17,ニ－83～85,上武,（有）上武商店,"2,3",,10,,,, c2 c3,うえたけ
2015/9/16,ニ－86～90,大雅,（株）大雅水産,1,,13,,,ショーケース（－６０℃）にて真空パックのサク（天然本鮪のみ販売）。社員すべてが営業できる若い力。早朝２時半からの営業で商品の早出しが可能。, c1,だいが
2015/10/9,1131～1140,尾坪水産,尾坪水産（株）,"1,2,3",,40,,,フグのとり扱いでは築地一で、冬場はフグ主体の店になります。, c1 c2 c3,おつぼすいさん
2015/10/2,2129～2132,水長,（株）水長水産,"2,3,4,5,6,7",,18,,,日本橋魚河岸（明治）より創業１００年を超える老舗です。活魚貝類、鮮魚、活穴子を主力に販売展開しています。, c2 c3 c4 c5 c6 c7,みずちょう
2015/10/8,2135,大直,（有）大直,9,,2,,,, c9,だいなお
2015/6/26,1028,昌栄水産,株式会社昌栄水産,1,,9,,,品質第一のこだわりのマグロ専門店です。, c1,しょうえいすいさん
2015/10/15,2136,大吾,（有）大吾,8,,3,,,干物詰め合わせなどを行っております。いつでも気軽にどうぞ。, c8,だいご
2015/10/2,3130,ニシエ～,（株）ニシエ～,9,,2,,,築地魚市場で一番（と言うことは世界で一番）良質の干物を提供することをモットーにしております。, c9,にしえい
2015/10/2,3133,佃多喜,（有）佃多喜,1,,1,,,, c1,つくたき
2015/10/2,3134,越金,（株）越金,3,,3,,,, c3,こしきん
2015/10/15,"2137,2138",共穂,（株）共穂,"2,3",,18,,,, c2 c3,きょうすい
2015/10/9,4129,丸山,（株）丸山,2,,5,,,, c2,まるやま
2015/10/2,4130,福虎,（有）福虎商店,2,,4,,,, c2,ふくとら
2015/6/19,"2016,8157",不二勝,（株）不二勝,"2,3,4,5,6,7,8,9",,7,,,天然物にこだわって、扱っています。自分がおいしいと思うもの、旬のものをそろえます。, c2 c3 c4 c5 c6 c7 c8 c9,ふじかつ
2015/10/2,"4135,4136",高徳,（有）高徳,1,,6,,,まぐろを中心に、お客様のニーズに合わせた対応を心がけています。, c1,たかとく
2015/10/1,"6129,6130",伏新,（有）伏新,11,,6,,,うなぎ一筋、５０年続く店です。, c11,ふししん
2015/10/2,5131,大萬,（株）大萬,1,,4,,,生マグロ（養殖・天然）、サクにして販売（店頭陳列）。冷凍マグロをほとんど全部サクにして一枚一枚洗って紙に包む。冷凍品も半解凍で店に陳列。, c1,だいまん
2015/10/1,5133,米川,米川水産（株）,1,,10,,,マグロはどこにも負けません, c1,よねかわ
2015/10/1,6157,築地高寿,（株）築地高寿,"2,3,5,6",,3,,,, c2 c3 c5 c6,つきじたかとし
2015/10/1,6130,長田,長田商店,1,,3,,,, c1,おさだ
2015/10/16,6131,水米,（有）水米,"5,7",,4,,,日本橋時代からの古さが取りえ（？）の老舗です。小さい店ですが頑張っていきます。, c5 c7,みずよね
2015/10/8,6132,堺良,堺良,1,,3,,,, c1,さかりょう
2015/10/1,6133,大水,（株）大水,12,,1,,,穴子やさんです, c12,だいすい
2015/10/8,6134,石金,石金,11,,3,,,うなぎ、すっぽん、冬場はカキを扱っています。, c11,いしきん
2015/6/20,2017～2020,西治分店,（有）丸西水産,"2,3,6",,7,,,, c2 c3 c6,にしじぶんてん
2015/10/1,"6135,6136",千大,（有）千大,1,,2,,,ボクシングの日本ミドル級チャンピオンがいる店です。, c1,ちだい
2015/10/1,7130,丸豊,（株）丸豊商店,3,,5,,,, c3,まるとよ
2015/10/2,"7132,7133",大宮,（有）大宮商店,"1,2,4,5,6,7,9,10",,8,,,おいしいモノがそろっています。, c1 c2 c4 c5 c6 c7 c9 c10,おおみや
2015/10/2,7134,浦安山長,（有）山長商店,"2,3",,1,,,おいしいモノがそろっています。, c2 c3,うらやすやまちょう
2015/10/1,7135,佃亀新,（有）佃亀新商店,"2,3,12",活魚、フグ,3,,,, c2 c3 c12,つくかめしん
2015/10/1,8131,岩良,（有）岩良,6,,6,,,, c6,いわりょう
2015/10/1,8135～8139,濱翔,築地濱翔（株）,1,,6,,,フットワーク良くお客様本位でがんばっています。, c1,はましょう
2015/10/1,イ－90～92,中里,（有）中里水産,1,,8,,,, c1,なかざと
2015/10/2,イ－93～98,平井本店,（株）平井本店,"5,12",冷凍海老,12,,,活海老、甘えび、伊勢海老、オマール海老のほか、世界各国の海老を冷凍でそろえてあります。, c5 c12,ひらいほんてん
2015/10/2,ロ－91～97,大善,（株）大善,1,,14,,,, c1,だいぜん
2015/9/24,ハ－91,柳徳,柳徳,"1,7",,1,,,メカジキ屋の最後の一軒です。明治２０年開業、日本橋魚市場時代からやってきました。今年９月３０日に閉店します。, c1 c7,やなとく
2015/10/1,ハ－93,かど,（有）かど,1,,4,,,ザ・マグロのお店です。, c1,かど
2015/10/1,ハ－94,川荘,（有）川荘,1,,2,,,天然本鮪と冷凍インド鉢（マグロ）を販売しています。, c1,かわそう
2015/9/30,ニ－91、92,堀富,堀富水産,3,,6,,,築地で一番歴史の古いフグの取り扱い仲卸です。フグの他にも活物、ホタテなどに力を入れています。, c3,ほりとみ
2015/6/19,"2021,2022",明定水産,（有）明定水産,"2,3",,2,,,鮮度第一。カニのことならお任せください。, c2 c3,あかさだすいさん
2015/10/1,ニ－93～98,丸利,丸利,"2,3",,25,,,豊富な品ぞろえで、お客様の力となります。, c2 c3,まるとし
2015/10/8,1141,米彦,（株）米彦,1,,5,,,若さと勢いで頑張ってます, c1,こめひこ
2015/10/8,1143､1144,町昇,（有）町昇,3,,5,,,, c3,まちしょう
2015/10/9,2139,司水産,（有）司水産,3,,6,,,すし屋、天ぷら屋など高級店を中心にお取引しています。, c3,つかさすいさん
2015/10/15,2140,大秋水産,大秋水産,3,,4,,,日本橋以来の仲買人です。, c3,だいあきすいさん
2015/10/15,"2141,2142",高栄,東京高栄水産（株）,1,,4,,,マグロの仕入れは声をかけてください。, c1,たかえい
2015/10/9,2144,キヨシ,（株）キヨシ,10,,2,,,, c10,
2015/6/19,"2023,2024",松長,（有）松長,1,,7,,,冷凍マグロ中心にやっています。取引先は都内の飲食店が多く、少量から対応しています。, c1,まつちょう
2015/10/8,3137,土方,（株）土方商店,"3,5",,1,,,良い食材（活海老、ホタテ貝、ツブ貝など）を提供しています。, c3 c5,ひじかた
2015/10/8,"3139,3140",丸菊,（株）丸菊,"1,2",,5,,,マグロ、鮮魚を中心にお客様の要望に合わせて魚市場にある食材全般を取り扱っております。, c1 c2,まるきく
2015/10/8,4138～4140,杉分,（有）杉分,1,,7,,,, c1,すぎぶん
2015/9/29,4141～4143,なり市堺浜,（株）なり市堺浜,"1,5,6",,16,,,安くて良い品を販売しています。, c1 c5 c6,なりいちさかはま
2015/10/8,4144,片岡水産,（有）片岡水産,"2,3,12",活魚、フグ,5,,,, c2 c3 c12,かたおかすいさん
2015/10/9,"5137,5138",山静,（有）山静商店,3,,5,,,, c3,やましず
2015/10/15,"5141,5142",虎栄,（有）虎栄,10,,5,,,, c10,とらえい
2015/10/23,5144,京富,（有）京富,"2,3,7",,6,,,そのとき、そのときに美味しいものを店に並べるよう、心がけています。, c2 c3 c7,きょうとみ
2015/10/8,6140,幸栄,（株）幸栄,1,,20,,,, c1,こうえい
2015/10/16,6144,佃文商店,佃文商店,"1,9",,1,,,自家製で増量剤を入れない鯨の味を生かした鯨製品や、同じく自家製の味付けで漬魚（西京漬や柚庵漬）を販売しています。売りは鯨ベーコンと銀ダラ西京。, c1 c9,つくぶんしょうてん
2015/10/8,7137、7138,大峰,（株）大峰,"5,7",,4,,,, c5 c7,だいみね
2015/10/8,7139、7140,尾芳,（有）尾芳商店,1,,2,,,目玉商品、大サービスで１パックで１０００円から。１サクからでもＯＫ。, c1,およし
2015/10/8,7143、7144,丸金,丸金水産（有）,3,,8,,,, c3,まるきん
2015/10/8,イ－102～105,<img src='http://www.asahi.com/special/tsukiji/map-nakaoroshi/images/moji/695-1.gif' alt='まるじん'松茂>,（有）丸仁松茂,"2,3",,10,,,, c2 c3,まるじんまつしげ
2015/10/8,イ－106,築地大黒,（株）築地大黒,3,,8,,,築地には珍しく女性の多い、明るくてにぎやかなお店です。, c3,つきじだいこく
2015/10/8,ロ－102,泉幸,（有）泉幸,1,,2,,,メバチ、南マグロ、メカジキを扱っております。良質の魚をご提供できるよう心掛けております。, c1,いずこう
2015/10/8,ロ－103,岩太,岩太,"2,4,6,7,9,12",冷凍ムキ帆立て貝、冷凍カキ、貝類（加熱用カキ、アサリ、シジミ、ホンビノス）、もずく,2,,,当店のカキは回転が早いので鮮度が良いとお客様に喜ばれています。, c2 c4 c6 c7 c9 c12,いわた
2015/6/11,2012,手源,（株）手源,"2,3",,5,,,客の８割は寿司屋さんです。少量から対応しています。, c2 c3,てげん
2015/6/25,3017,秋清,（株）秋清商店,8,,3,,,旨（うま）い干物をいろいろ扱っています。他に西京漬け、みりん漬けもあります。, c8,あきせい
2015/10/9,ロ－104,渡辺水産,（有）渡辺水産,5,,3,,,, c5,わたなべすいさん
2015/10/8,ロ－105、106,<img src='http://www.asahi.com/special/tsukiji/map-nakaoroshi/images/moji/701-1.gif' alt='まるてい'>,（有）丸禎,"8,9,10",,8,,,塩干魚業会正会員として６５年の歴史と共に今日も市場発展のためにがんばっています。, c8 c9 c10,まるてい
2015/10/1,ハ－99,大米,（株）大米,2,,6,,,, c2,だいよね
2015/10/9,ハ－101,新井水産,新井水産（株）,"2,3,5",,4,,,良品をお安く提供しています。お気軽にお立ち寄りください。, c2 c3 c5,あらいすいさん
2015/10/8,ハ－102,五木田,五木田,8,,3,,,, c8,ごきた
2015/10/2,ハ－103、104,伊勢粂,（有）伊勢粂,9,,4,,,, c9,いせくめ
2015/10/8,ハ－105、106,滝富,（有）滝富,1,,2,,,正直、丁寧。, c1,たきとみ
2015/10/8,ニ－100,宇田喜,（株）宇田喜,1,,5,,,, c1,うだき
2015/6/19,3018,国井,（有）国井,10,,3,,,もともとは練り製品をメインにやっていましたが、30年ほど前からほかの水産物加工品も扱っています。, c10,くにい
2015/10/2,ニ－103～106,日本丸大,（株）日本丸大,9,,12,,,築地創業1931年。以来しらす干し、ちりめんじゃこ等の塩干品を中心に全国の珍味類、水産加工食品等、幅広く取り扱っています。, c9,にほんまるだい
2015/10/15,1145～1148,木村水産,木村水産（株）,1,,3,,,築地の地で半世紀以上、マグロを中心に販売しております。仲卸の目利きを武器に良いマグロをご提供いたしますので、よろしくお願いします。, c1,きむらすいさん
2015/10/23,1149,金八,金八水産,1,,4,,,, c1,きんぱち
2015/10/15,1152,オオハシ,（有）オオハシ商店,"4,9",,3,,,塩干魚の取り扱いが主ですが、自家製造商品も含めてジャンルにとらわれずおいしいものを扱っています。, c4 c9,おおはし
2015/10/16,2147,キタニ水産,（株）キタニ水産,"1,2",,34,,,マグロ・鮮魚・水産加工品・冷凍品など幅広く取り扱う仲卸業者です。お客様とのコミュニケーションを大事にし、多様なニーズや飲食店様独自のご要望に可能な限りお応えした、お客様に寄り添った仕入れをご提案しています。, c1 c2,きたにすいさん
2015/6/19,"3019,3020",北沢,丸北商店,"9,10",,6,,,フットワークで勝負しています。, c9 c10,きたざわ
2015/10/15,"3140～3145,4147",川鉄,（株）川鉄,"2,3",,13,,,活魚、毛ガニを取り扱うお店です。カニが大好きなお母さんが奮闘中です。, c2 c3,かわてつ
2015/10/15,3147,石山海山,石山海山（株）,"4,6,7,8,9",,7,,,Love＆Peace, c4 c6 c7 c8 c9,いしやまかいさん
2015/10/23,4149,柳又,（株）柳又,1,,3,,,, c1,やなまた
2015/6/19,3021,丸清,（株）丸清,3,,3,,,お客さんの期待している以上のものをそろえるよう、努力しています。, c3,まるせい
2015/10/15,4151～4156,三栄水産,三栄水産（株）,"3,5,7",,24,,,海老はもちろん、その他の魚介類もお任せ下さい。, c3 c5 c7,さんえいすいさん
2015/10/15,5145,大正,（有）大正商店,"1,2,4,5,6,7,8,9",,1,,,本当の意味での仲卸業を続けたい。, c1 c2 c4 c5 c6 c7 c8 c9,たいしょう
2015/10/15,5146,新又,（有）新又商店,"1,4",,1,,,移転を前に店を閉める予定です。, c1 c4,あらまた
2015/10/16,5147,大稲,（株）大稲,"1,2",,2,,,, c1 c2,だいいね
2015/10/9,5149、5150,<img src='http://www.asahi.com/special/tsukiji/map-nakaoroshi/images/moji/734-1.gif' alt='まるしょう'>,（有）丸庄商店,5,,4,,,エビ食いねぇ！, c5,まるしょう
2015/10/9,5151～5153,富士見<img src='http://www.asahi.com/special/tsukiji/map-nakaoroshi/images/moji/735-4.gif' alt='かねしち'>,（有）富士見かね七,"2,7,12",貝類全般,4,,,少人数で頑張っていますが、従業員みんな家族のように仲良しです。ちなみに年末は社長の大学生の娘さん（姉妹）が手伝いにきて賑やかですよ！, c2 c7 c12,ふじみかねしち
2015/10/16,"6145,6146",尾粂,（有）尾粂商店,8,,7,,,創業明治４（1871）年。日本各地に選りすぐりの干物、塩干品、加工品を中心に生産者とともに安全な美味しい食品を追求していきます。, c8,おくめ
2015/10/16,"6147,6148",虎武,虎武商店,10,,3,,,, c10,とらたけ
2015/10/16,"6149,6150",長島,（株）長島商店,"4,5,8,10",,5,,,, c4 c5 c8 c10,ながしま
2015/6/25,"2025,3023,3024,4094",越虎,（株）越虎,1,,6,,,明治、日本橋魚河岸に創業した老舗です。マグロを専門に、目利きを大切に日々がんばっています！, c1,えちとら
2015/10/16,7145～7148,樋栄,（株）樋栄,"1,2",,8,,,創業昭和２（192７）年。生マグロを主体に冷凍マグロや梶木（カジキ）等を扱っています。, c1 c2,ひえい
2015/10/16,7149～7152,佃寅,佃寅,"4,5,7,9,10,12",,16,,,日本橋魚河岸から続く、老舗の水産問屋です。より一層お客様に喜んでいただける店になり、豊洲新市場へ向けて、さらに進化してまいります。, c4 c5 c7 c9 c10 c12,つくとら
2015/10/15,8145、8146,大鈴,（株）大鈴,"5,12",冷凍イカ,3,,,, c5 c12,だいすず
2015/10/9,8147～8155,嘉徳,（株）プレコエフユニット,"2,3,4,6,7,8,9,10",,38,,,, c2 c3 c4 c6 c7 c8 c9 c10,よしとく
2015/10/16,イ－107～109,コアミ,（株）コアミ,"2,3,5",,10,,,, c2 c3 c5,こあみ
2015/10/16,ロ－107、108,<img src='http://www.asahi.com/special/tsukiji/map-nakaoroshi/images/moji/746-1.gif' alt='かねしち'>,かね七水産（株）,3,,10,,,他の店舗にないような商品を取り扱えるようにしております。, c3,かねしち
2015/10/15,ロ－110～112,米彦１号店,（株）米彦,1,,4,,,生鮮から冷凍（並品～上物）のマグロを全て扱います。特に国産天然本マグロに力を入れています。１kgから販売致します！, c1,こめひこいちごうてん
2015/10/15,4029～4034、6113～6116、ハ－107～109,吉善,（株）吉善,"1,2,3,4,6,7,10,11",,50,,,店員が明るく前向きに商売しています。, c1 c2 c3 c4 c6 c7 c10 c11,よしぜん
2015/6/19,"3025,3026",善金,（有）善金,3,,6,,,品質のよいものをそろえ、高級すし屋相手に商売をしています。, c3,ぜんきん
2015/10/15,ハ－110～116,佃友,佃友,"2,3",,20,,,配達が速いのが売りです。, c2 c3,つくとも
2015/10/15,ニ－107,中島,中島商店,1,,3,,,ていねいに仕事しています。, c1,なかじま
2015/10/16,ニ－108～110,ホクエイ食品,ホクエイ食品（株）,1,,5,,,マグロに関しては何でもあります。, c1,ほくえい
2015/10/15,ニ－111、112,大内,（株）大内商店,2,,7,,,, c2,おおうち
2015/10/15,ニ－113,瀬古,（有）瀬古商店,"4,7,8,9,10",,8,,,創業大正11（1922）年、今から90年以上も前から私たちは魚河岸にいます。数多くある干物からとびきりのものだけを目利きしまして皆様にお届けしています。三代目まで綿々と引き継がれてきた瀬古商店のこだわりです。, c4 c7 c8 c9 c10,せこ
2015/10/15,ニ－115、116,伊勢慶商店,（有）伊勢慶商店,"5,7",,8,,,多彩なアイテム（エビ、カニなど）をそろえています。, c5 c7,いせけいしょうてん
2015/10/23,"1153,1154",籾豊,（有）籾豊,1,,6,,,三代続くマグロ仲卸です。お客様のニーズにお応えできますよう努めています。お気軽にお立ち寄り下さい。, c1,もみとよ
2015/10/23,1155,佐一,佐一水産（株）,"4,7,8,9,10",,6,,,, c4 c7 c8 c9 c10,さいち
2015/10/23,"1157,1158",田信,（株）田信商店,"8,9,10",,26,,,"店舗では日配品（ねり製品、加工品、漬けもの）、紀文食品の代理店、塩干合物を中心に販売しています。販売店対応でWeb-EDI,EOSなどの受注、センター納品、配送など幅広いニーズに対応しております。", c8 c9 c10,たしん
2015/10/23,"1159,1160",幸良,（株）幸良,1,,4,,,needsに迅速に的確に対応！！, c1,こうりょう
2015/6/25,3027～3029,神奈辰,（株）神奈辰,3,,20,,,お客のニーズに応えられるよう、日々一生懸命がんばっています。, c3,かなたつ
2015/10/23,2154～2162,泉久,泉久食品（株）,"2,3,4,5,6,7,8,9",,36,,,品揃えと鮮度には自信があります。, c2 c3 c4 c5 c6 c7 c8 c9,いずきゅう
2015/10/22,3153,古家,（有）古家商店,2,,3,,,, c2,ふるや
2015/10/23,3154,伊勢由,伊勢由商店,1,,3,,,, c1,いせよし
2015/10/23,"3155,3156",大政,（株）大政本店,6,,5,,,築地市場唯一のゆでだこの加工・販売専門店です。大正１１年創業。, c6,だいまさ
2015/10/23,"3157,3158",芳彦水産,（有）芳彦水産,1,,3,,,, c1,よしひこすいさん
2015/10/23,"3159,3160",<img src='http://www.asahi.com/special/tsukiji/map-nakaoroshi/images/moji/767-1.gif' alt='かねきん'>宇田川,（有）宇田川,3,,7,,,, c3,かねきんうだがわ
2015/6/19,"4017,4018",藤得,（有）藤得,1,,3,,,生マグロの専門店です。, c1,ふじとく
2015/10/23,4157,伊勢粂鮮魚部,（有）伊勢粂,"2,3",,4,,,, c2 c3,いせくめせんぎょぶ
2015/10/23,"3161,3162,4159",山義,（有）山義,1,,5,,,, c1,やまよし
2015/10/23,4160,佃堅,佃堅水産（株）,2,,9,,,日本橋魚市場にて１９１６（大正５）年に佃堅商店として創業。鮮魚の卸および仲買人として営業しております。また、首都圏に鮨と魚料理の店「福助」「ほり川」を展開している株式会社福助は、関連会社です。, c2,つくけん
2015/10/22,5154～5156,玉銀水産,（有）玉銀水産,"1,2",,7,,,, c1 c2,たまぎんすいさん
2015/10/22,5157,古見,（有）古見,4,,3,,,, c4,ふるみ
2015/10/23,5161,総食,（株）総食,"1,2,3,7",,25,,,明るく社員一同楽しく仕事をしている、笑いがたえない会社です。, c1 c2 c3 c7,そうしょく
2015/6/19,4019,亀福,（株）亀福,5,,10,,,国産エビにこだわるエビ専門店です。, c5,かめふく
2015/10/23,6156,登くら,（有）登くら,1,,2,,,, c1,とくら
2015/10/23,6159～6162,赤羽,（有）赤羽,"2,12",活魚,4,,,魚の見やすい水槽（姿、形、色）、魚の休める大水槽。, c2 c12,あかば
2015/10/22,7153、7154,森文,（有）森文,1,,4,,,, c1,もりふみ
2015/10/22,7157、7158,栗辰,（有）栗辰,"4,7",,4,,,通称は栗ちゃんです。最高級のイクラ、明太子、たら子、筋子、および汐紅鮭を格安にて販売中。築地魚河岸の栗ちゃんに立ち寄ってね。お願い！, c4 c7,くりたつ
2015/10/22,7160,佐孝,佐孝,"2,3,4,10",,5,,,, c2 c3 c4 c10,さこう
2015/10/22,7162,梅澤,（株）梅澤,3,,5,,,全てが売りです！, c3,うめざわ
2015/6/19,4021～4023,カネカ一,カネカ一水産,1,,7（社全体では20人）,,,品質重視のマグロ屋です。シンガポール・ロシアに輸出もしています。, c1,かねかいち
2015/10/22,8156,三木芳,三木芳,"1,7",,2,,,, c1 c7,みきよし
2015/10/22,8157,不二勝二号,（株）不二勝二号,3,,4,,,, c3,ふじかつにごう
2015/10/22,8159,寿賀半,（有）寿賀半,2,,2,,,, c2,すかはん
2015/10/22,8160,尾藤,（有）尾藤商店,1,,2,,,主に個人経営のお客様向けに生鮪を提供させていただいております。お客様のご要望にお応えできるよう、一本一本丁寧に仕入れを行っています。その技と心、この二つが我が社の売りであります。, c1,おとう
2015/10/23,8161,キタニ水産,（株）キタニ水産,"1,2",,34,,,マグロ、鮮魚、水産加工品、冷凍食品など幅広く取り扱う水産仲卸業者です。お客様とのコミニケーションを大事にし、多様なニーズや飲食店様独自のご要望に可能な限りお応えした、お客様に寄り添った仕入れをご提案しています。, c1 c2,きたにすいさん
2015/6/11,2015,南本店,（株）南本店,2,,7,,,品数豊富に薄利多売でやっています。お客さんがたくさん集まると賑やかでいい。, c2,みなみほんてん
2015/6/19,"4025,4026",大輝,（有）大輝,"1,4",,5,,,品質がよくてリーズナブルなお店です。生のバチや冷凍の本マグロを扱っています。, c1 c4,だいてる
2015/6/25,4028,増田屋,（株）増田屋総合食品,"10,12",,3,,,美味（おい）しい品を選んですすめてます。, c10 c12,ますだや
2015/6/26,5019～5024,山と,山と水産株式会社,3,,13,,,, c3,やまと
2015/6/26,5026,川合水産,有限会社川合水産,"2,3,5,7",,5,,,築地のセリ場を歩きまわって、目でみて触れて、鮮魚は主人が、私は主婦の立場になって、今求めている旬の食材を、時にはセリ帽をかぶり、鮮魚・干物まで探して「皆様に安くて美味しいものを」と、求めています。, c2 c3 c5 c7,かわいすいさん
2015/6/26,5027,金中,（有）金中商店,9,,2,,,, c9,かねなか
2015/6/25,5028,阿部水産,（有）阿部水産,3,,4,,,ふぐ・活魚を取り扱っています。, c3,あべすいさん
2015/7/2,6017,虎石,（株）虎石,10,,6,,,お客さんに気に入ってもらえる商品は何か、日夜追求しています。, c10,とらいし
2015/7/1,"6019,6020",丸雄,（有）丸雄商店,1,,3,,,インドマグロ、メカジキ、大バチなど、安くていいものを提供しています。, c1,まるゆう
2015/6/26,"6021,6022",島美,（有）島美商店,"9,10",,3,,,シラスやちりめん、小女子、イクラなど、いいものを数多く扱っています。, c9 c10,しまみ
2015/6/26,6023,大閣２,有限会社大閣,5,,3,,,個性的な従業員が明るく接客します。, c5,だいかくに
2015/6/19,6024～6028,<img src='http://www.asahi.com/special/tsukiji/map-nakaoroshi/images/moji/94-1.gif' alt='まるさん'>海老の浦井,（株）海老の浦井,"2,3,5,7,11",,14,,,天ぷら種を中心とした、鮮魚介類を中心に商いをさせて頂いております。, c2 c3 c5 c7 c11,えびのうらい
2015/6/25,7018,虎正,（有）虎正商店,1,,2,,,冷凍本マグロ、インドマグロなどを扱っています。, c1,とらしょう
2015/6/26,7018～7021,万成,（有）万成,3,,13,,,鮮度重視でやってます。, c3,まんせい
